0000: default_tile
0001: grass_tile
0002: water_tile
0003: wood_tile
0004: water_grass_tile_1
0005: water_grass_tile_2
0006: water_grass_tile_3
0007: water_grass_tile_4
0008: water_grass_tile_5
0009: water_grass_tile_6
0010: water_grass_tile_7
0011: water_grass_tile_8
0012: water_grass_tile_9
0013: water_grass_tile_10
0014: water_grass_tile_11
0015: water_grass_tile_12
0016: rock_wall_wood_tile_1
0017: rock_wall_wood_tile_2
0018: rock_wall_wood_tile_3
0019: metal_grid_tile_1
0020: metal_grid_tile_2
0021: counter_tile_1
0022: counter_tile_2
0023: counter_tile_3
0024: counter_tile_4
0025: dirt_tile
0026: dirt_grass_tile_1
0027: dirt_grass_tile_2
0028: dirt_grass_tile_3
0029: dirt_grass_tile_4
0030: dirt_grass_tile_5
0031: dirt_grass_tile_6
0032: dirt_grass_tile_7
0033: dirt_grass_tile_8
0034: dirt_grass_tile_9
0035: dirt_grass_tile_10
0036: dirt_grass_tile_11
0037: dirt_grass_tile_12
0038: two_ground_tile
0039: upper_cliff_tile
0040: lower_cliff_tile
0041: cliff_tile_1
0042: cliff_tile_2
0043: cliff_tile_3
0044: cliff_tile_4
0045: cliff_tile_5
0046: cliff_tile_6
0047: cliff_tile_7
0048: cliff_tile_8
0049: cliff_tile_9
0050: cliff_tile_10
0051: wood_tile
0052: wood_tile




