00140009
000000aa
04000060
a0apapapapapapapapapapapapa0
a0acacacaxacacacacawacacaca0
a0auauauauacacacacauauauaua0
a0acacacacacacacacacacacaca0
a0acacacacacacacacacacacaca0
a0auauauavacacacacacacacaca0
a0acacacavacacacacacacacaca0
a0a0a0a0a0a0acaca0a0a0a0a0a0
a0a0a0a0a0a0a0a0a0a0a0a0a0a0
0174010001750100
0144000001019000
0129000001089001
0149005000940050
0006800000078007
