3
1736
7
63136411650663176312
10
46.05000000000001
37.59999999999999
22.799999999999994
33.90000000000001
28.299999999999994
7.800000000000002
66
37
44
16972
player_spr_1
Lizard-men
male
Deziar
Warrior
Swift blade
4
Iron circlet
Vambrace
Celtic leather plate armor
Celtic shield
0
2
Basic attack
3
Power attack
10
7
Swift blade
Iron circlet
Celtic leather plate armor
Vambrace
Celtic shield
Lightning blade
life bottle
35
2
0
0
39
2
0
0
0
0
0
0
0
0
0
0
0
0
0
0
0
0
0
0
0
0
181
3
0
0
Character end
10
62.65000000000001
28.40000000000001
20.900000000000006
25.5
32.90000000000001
7.800000000000002
104
19
40
16972
player_spr_2
Human
male
Antho
Tank
Heavy axe
4
Mail helmet
Banded mail gauntlet
Heavy nordic armor
Heavy nordic shield
0
2
Basic attack
3
Power attack
10
7
Heavy axe
Mail helmet
Heavy nordic armor
Banded mail gauntlet
Heavy nordic shield
life bottle
stamina potion
0
0
52
2
0
0
0
0
0
0
0
0
0
0
0
0
0
0
0
0
0
0
0
0
0
0
0
0
169
3
Character end
10
38.650000000000006
22.799999999999994
41.300000000000004
29.299999999999994
26.5
8.024999999999997
76
37
35
16972
player_spr_3
Elf
female
Geneviève
Spellcaster
Witcher staff
4
Padded helmet
Padded gauntlet
Light nordic armor
Light nordic shield
14
fireball
first aid
recovery
frost
quake
fierce heart
spark
north wind
healing aura
plasma
heat wave
guard
close wound
rock spike
1
Basic attack
3
5
Witcher staff
Padded helmet
Light nordic armor
Padded gauntlet
Light nordic shield
0
0
0
0
0
0
0
0
0
0
9
0
0
0
68
2
23
1
9
0
23
1
81
2
179
3
0
0
0
0
Character end
File end
